RTL/mac_gating/mac_col_gated_tb.vcd
$date
	Sat Mar  8 00:52:21 2025
$end
$version
	Icarus Verilog
$end
$timescale
	1ps
$end
$scope module mac_col_gated_tb $end
$var wire 20 ! out [19:0] $end
$var wire 2 " o_inst [1:0] $end
$var wire 1 # fifo_wr $end
$var reg 1 $ clk $end
$var reg 2 % inst [1:0] $end
$var reg 8 & k_zero [7:0] $end
$var reg 64 ' q_in [63:0] $end
$var reg 8 ( q_zero [7:0] $end
$var reg 1 ) reset $end
$var reg 20 * temp5b [19:0] $end
$var integer 32 + captured_data [31:0] $end
$var integer 32 , j [31:0] $end
$var integer 32 - k [31:0] $end
$var integer 32 . q [31:0] $end
$var integer 32 / qk_file [31:0] $end
$var integer 32 0 qk_scan_file [31:0] $end
$var integer 32 1 t [31:0] $end
$scope module mac_col_instance $end
$var wire 1 $ clk $end
$var wire 2 2 i_inst [1:0] $end
$var wire 8 3 k_zero [7:0] $end
$var wire 2 4 o_inst [1:0] $end
$var wire 20 5 out [19:0] $end
$var wire 64 6 q_in [63:0] $end
$var wire 8 7 q_zero [7:0] $end
$var wire 1 ) reset $end
$var wire 64 8 q_out [63:0] $end
$var wire 20 9 psum [19:0] $end
$var wire 1 # fifo_wr $end
$var reg 4 : cnt_q [3:0] $end
$var reg 2 ; inst_2q [1:0] $end
$var reg 2 < inst_q [1:0] $end
$var reg 8 = k_zero_reg [7:0] $end
$var reg 8 > key_q_0 [7:0] $end
$var reg 8 ? key_q_1 [7:0] $end
$var reg 8 @ key_q_2 [7:0] $end
$var reg 8 A key_q_3 [7:0] $end
$var reg 8 B key_q_4 [7:0] $end
$var reg 8 C key_q_5 [7:0] $end
$var reg 8 D key_q_6 [7:0] $end
$var reg 8 E key_q_7 [7:0] $end
$var reg 1 F load_ready_q $end
$var reg 8 G q_zero_reg [7:0] $end
$var reg 8 H query_q_0 [7:0] $end
$var reg 8 I query_q_1 [7:0] $end
$var reg 8 J query_q_2 [7:0] $end
$var reg 8 K query_q_3 [7:0] $end
$var reg 8 L query_q_4 [7:0] $end
$var reg 8 M query_q_5 [7:0] $end
$var reg 8 N query_q_6 [7:0] $end
$var reg 8 O query_q_7 [7:0] $end
$scope module mac_8in_gated_instance $end
$var wire 8 P a_0 [7:0] $end
$var wire 8 Q a_1 [7:0] $end
$var wire 8 R a_2 [7:0] $end
$var wire 8 S a_3 [7:0] $end
$var wire 8 T a_4 [7:0] $end
$var wire 8 U a_5 [7:0] $end
$var wire 8 V a_6 [7:0] $end
$var wire 8 W a_7 [7:0] $end
$var wire 8 X a_zero [7:0] $end
$var wire 8 Y b_0 [7:0] $end
$var wire 8 Z b_1 [7:0] $end
$var wire 8 [ b_2 [7:0] $end
$var wire 8 \ b_3 [7:0] $end
$var wire 8 ] b_4 [7:0] $end
$var wire 8 ^ b_5 [7:0] $end
$var wire 8 _ b_6 [7:0] $end
$var wire 8 ` b_7 [7:0] $end
$var wire 8 a b_zero [7:0] $end
$var wire 1 $ clk $end
$var wire 16 b product7 [15:0] $end
$var wire 16 c product6 [15:0] $end
$var wire 16 d product5 [15:0] $end
$var wire 16 e product4 [15:0] $end
$var wire 16 f product3 [15:0] $end
$var wire 16 g product2 [15:0] $end
$var wire 16 h product1 [15:0] $end
$var wire 16 i product0 [15:0] $end
$var wire 20 j out [19:0] $end
$var reg 16 k product_reg0 [15:0] $end
$var reg 16 l product_reg1 [15:0] $end
$var reg 16 m product_reg2 [15:0] $end
$var reg 16 n product_reg3 [15:0] $end
$var reg 16 o product_reg4 [15:0] $end
$var reg 16 p product_reg5 [15:0] $end
$var reg 16 q product_reg6 [15:0] $end
$var reg 16 r product_reg7 [15:0] $end
$upscope $end
$upscope $end
$upscope $end
$enddefinitions $end
#0
$dumpvars
bx r
bx q
bx p
bx o
bx n
bx m
bx l
bx k
bx j
bx i
bx h
bx g
bx f
bx e
bx d
bx c
bx b
bx a
bx `
bx _
bx ^
bx ]
bx \
bx [
bx Z
bx Y
bx X
bx W
bx V
bx U
bx T
bx S
bx R
bx Q
bx P
bx O
bx N
bx M
bx L
bx K
bx J
bx I
bx H
bx G
xF
bx E
bx D
bx C
bx B
bx A
bx @
bx ?
bx >
bx =
bx <
bx ;
bx :
bx 9
bx 8
b0 7
bx 6
bx 5
bx 4
bz 3
b0 2
bx 1
b1 0
b10000000000000000000000000000011 /
b0 .
bx -
b1000 ,
b11111111111111111111111111011010 +
bx *
1)
b0 (
bx '
b0 &
b0 %
0$
x#
bx "
bx !
$end
#1000
0#
b0 ;
b0 "
b0 4
b0 <
1F
b0 :
b1 .
1$
#1500
0$
#2000
b0 .
1$
#2500
0$
#3000
b1 .
1$
#3500
0$
#4000
b10 .
1$
#4500
0$
#5000
b11 .
1$
#5500
0$
#6000
b100 .
1$
#6500
0$
#7000
b101 .
1$
#7500
0$
#8000
b110 .
1$
#8500
0$
#9000
b111 .
1$
#9500
0$
#10000
b1000 .
1$
#10500
0$
#11000
b1001 .
1$
#11500
0$
#12000
b11010101110110 *
b1000 -
b1000 1
b1000 ,
b11111111111111111111111111000111 +
b10000000000000000000000000000100 /
0)
b1010 .
1$
#12500
b1000000 (
b1000000 7
b1100011100000000000010111011010101111011100101001101111011110000 '
b1100011100000000000010111011010101111011100101001101111011110000 6
b1 %
b1 2
0$
#13000
b1 "
b1 4
b1 <
1$
#13500
b0 %
b0 2
0$
#14000
b110010110001 b
b0 c
b1111001 d
b1010111111001 e
b11101100011001 f
b10110110010000 g
b10010000100 h
b100000000 i
0F
b1000000 =
b1000000 a
b11000111 E
b11000111 `
b0 D
b0 _
b1011 C
b1011 ^
b10110101 B
b10110101 ]
b1111011 A
b1111011 \
b10010100 @
b10010100 [
b11011110 ?
b11011110 Z
b11110000 >
b11110000 Y
b11000111 O
b11000111 W
b0 N
b0 V
b1011 M
b1011 U
b10110101 L
b10110101 T
b1111011 K
b1111011 S
b10010100 J
b10010100 R
b11011110 I
b11011110 Q
b1111000011011110100101000111101110110101000010110000000011000111 8
b11110000 H
b11110000 P
b1 ;
b0 "
b0 4
b0 <
b0 .
1$
#14500
0$
#15000
b1001000101010000 !
b1001000101010000 5
b1001000101010000 9
b1001000101010000 j
b110010110001 r
b0 q
b1111001 p
b1010111111001 o
b11101100011001 n
b10110110010000 m
b10010000100 l
b100000000 k
b0 ;
b1 .
1$
#15500
0$
#16000
b10 .
1$
#16500
b10 %
b10 2
0$
#17000
b10 "
b10 4
b10 <
b0 .
1$
#17500
b10000 (
b10000 7
b1000101101111010110000100000000010001110100010111000011111111101 '
b1000101101111010110000100000000010001110100010111000011111111101 6
0$
#18000
1#
b10000 G
b10000 X
b1101000001101 b
b10001011 O
b10001011 W
b1111010 N
b1111010 V
b1111110101010110 d
b11000010 M
b11000010 U
b0 e
b0 L
b0 T
b1100100100111010 f
b10001110 K
b10001110 S
b11000101011100 g
b10001011 J
b10001011 R
b1000000010010 h
b10000111 I
b10000111 Q
b1111110110000111100010111000111000000000110000100111101010001011 8
b110000 i
b11111101 H
b11111101 P
b10 ;
b1 .
1$
#18500
b110 (
b110 7
b1001011001100010000100000111100010100000000000000000011001100 '
b1001011001100010000100000111100010100000000000000000011001100 6
0$
#19000
b1101000001101 r
b1111110101010110 p
b0 o
b1100100100111010 n
b11000101011100 m
b1000000010010 l
b10001000111011 !
b10001000111011 5
b10001000111011 9
b10001000111011 j
b110000 k
b110 G
b110 X
b1111101111111110 b
b10010 O
b10010 W
b11001100 N
b11001100 V
b1011010110 d
b1000010 M
b1000010 U
b1111101110011011 e
b1111 L
b1111 T
b100110011100 f
b10100 K
b10100 S
b0 g
b0 J
b0 R
b0 h
b0 I
b0 Q
b1100110000000000000000000001010000001111010000101100110000010010 8
b1101000000 i
b11001100 H
b11001100 P
b10 .
1$
#19500
b0 (
b0 7
b1101000000101100000101100111010010011110111010111001010010100100 '
b1101000000101100000101100111010010011110111010111001010010100100 6
0$
#20000
b0 G
b0 X
b101010110000 b
b11010000 O
b11010000 W
b101100 N
b101100 V
b11110010 d
b10110 M
b10110 U
b1101111000000100 e
b1110100 L
b1110100 T
b1101000011101010 f
b10011110 K
b10011110 S
b100011011100 g
b11101011 J
b11101011 R
b111001011000 h
b10010100 I
b10010100 Q
b1010010010010100111010111001111001110100000101100010110011010000 8
b10111000000 i
b10100100 H
b10100100 P
b1111101111111110 r
b1011010110 p
b1111101110011011 o
b100110011100 n
b0 m
b0 l
b11101001011 !
b11101001011 5
b11101001011 9
b11101001011 j
b1101000000 k
b11 .
1$
#20500
b1101011010110100011100011010100110010100010011101001101010110101 '
b1101011010110100011100011010100110010100010011101001101010110101 6
0$
#21000
b101010110000 r
b11110010 p
b1101111000000100 o
b1101000011101010 n
b100011011100 m
b111001011000 l
b11111101011110000100 !
b11111101011110000100 5
b11111101011110000100 9
b11111101011110000100 j
b10111000000 k
b100101011010 b
b11010110 O
b11010110 W
b10110100 N
b10110100 V
b10011011011 d
b1110001 M
b1110001 U
b1100101111101 e
b10101001 L
b10101001 T
b1100110000011100 f
b10010100 K
b10010100 S
b1101111100011000 g
b1001110 J
b1001110 R
b110110001100 h
b10011010 I
b10011010 Q
b1011010110011010010011101001010010101001011100011011010011010110 8
b10010110000 i
b10110101 H
b10110101 P
b100 .
1$
#21500
b1100011111101000001111010110010100010001010111101001111110011000 '
b1100011111101000001111010110010100010001010111101001111110011000 6
0$
#22000
b110010110001 b
b11000111 O
b11000111 W
b11101000 N
b11101000 V
b1010011111 d
b111101 M
b111101 U
b1110001001101001 e
b1100101 L
b1100101 T
b100000101011 f
b10001 K
b10001 S
b1101100001011000 g
b1011110 J
b1011110 R
b110011100010 h
b10011111 I
b10011111 Q
b1001100010011111010111100001000101100101001111011110100011000111 8
b11010000000 i
b10011000 H
b10011000 P
b100101011010 r
b10011011011 p
b1100101111101 o
b1100110000011100 n
b1101111100011000 m
b110110001100 l
b11111110010100100010 !
b11111110010100100010 5
b11111110010100100010 9
b11111110010100100010 j
b10010110000 k
b101 .
1$
#22500
b11101010100001111010111000000010000111110111001011001101110101 '
b11101010100001111010111000000010000111110111001011001101110101 6
0$
#23000
b110010110001 r
b1010011111 p
b1110001001101001 o
b100000101011 n
b1101100001011000 m
b110011100010 l
b11111110010110011110 !
b11111110010110011110 5
b11111110010110011110 9
b11111110010110011110 j
b11010000000 k
b1111001100010110 b
b111010 O
b111010 W
b10100001 N
b10100001 V
b1111111100011001 d
b11101011 M
b11101011 U
b10010110000000 e
b10000000 L
b10000000 T
b1100010111011101 f
b10000111 K
b10000111 S
b111100110000 g
b11011100 J
b11011100 R
b101000111010 h
b10110011 I
b10110011 Q
b111010110110011110111001000011110000000111010111010000100111010 8
b1111100010110000 i
b1110101 H
b1110101 P
b110 .
1$
#23500
b110011101010001111100110101011011010111101011000100101010001100 '
b110011101010001111100110101011011010111101011000100101010001100 6
0$
#24000
b1110100100010001 b
b1100111 O
b1100111 W
b1010001 N
b1010001 V
b1111111101110001 d
b11110011 M
b11110011 U
b1110011011001110 e
b1010110 L
b1010110 T
b1110110001001101 f
b11010111 K
b11010111 S
b10001101110000 g
b10101100 J
b10101100 R
b1111011000101100 h
b1001010 I
b1001010 Q
b1000110001001010101011001101011101010110111100110101000101100111 8
b11101000000 i
b10001100 H
b10001100 P
b1111001100010110 r
b1111111100011001 p
b10010110000000 o
b1100010111011101 n
b111100110000 m
b101000111010 l
b11111110111110100110 !
b11111110111110100110 5
b11111110111110100110 9
b11111110111110100110 j
b1111100010110000 k
b111 .
1$
#24500
b1101101001110100011100001011110000010110111000010100000110101100 '
b1101101001110100011100001011110000010110111000010100000110101100 6
0$
#25000
b1110100100010001 r
b1111111101110001 p
b1110011011001110 o
b1110110001001101 n
b10001101110000 m
b1111011000101100 l
b11111101110001111001 !
b11111101110001111001 5
b11111101110001111001 9
b11111101110001111001 j
b11101000000 k
b100001110110 b
b11011010 O
b11011010 W
b1110100 N
b1110100 V
b10011010000 d
b1110000 M
b1110000 U
b1001111101100 e
b10111100 L
b10111100 T
b101010010010 f
b10110 K
b10110 S
b110100010100 g
b11100001 J
b11100001 R
b1111011101011110 h
b1000001 I
b1000001 Q
b1010110001000001111000010001011010111100011100000111010011011010 8
b10101000000 i
b10101100 H
b10101100 P
b1000 .
1$
#25500
bx (
bx 7
bx '
bx 6
0$
#26000
bx G
bx X
bx b
bx O
bx W
bx c
bx N
bx V
bx d
bx M
bx U
bx e
bx L
bx T
bx f
bx K
bx S
bx g
bx J
bx R
bx h
bx I
bx Q
bx 8
bx i
bx H
bx P
b100001110110 r
b10011010000 p
b1001111101100 o
b101010010010 n
b110100010100 m
b1111011101011110 l
b11010101110110 !
b11010101110110 5
b11010101110110 9
b11010101110110 j
b10101000000 k
b1001 .
1$
#26500
0$
#27000
bx r
bx p
bx o
bx n
bx m
bx l
bx !
bx 5
bx 9
bx j
bx k
b0 "
b0 4
b0 <
b1010 .
b0 %
b0 2
1$
#27500
0$
#28000
0#
b0 ;
1$
